%YAML 1.1
%TAG !u! tag:unity3d.com,2011:
--- !u!114 &11400000
MonoBehaviour:
  m_ObjectHideFlags: 0
  m_CorrespondingSourceObject: {fileID: 0}
  m_PrefabInstance: {fileID: 0}
  m_PrefabAsset: {fileID: 0}
  m_GameObject: {fileID: 0}
  m_Enabled: 1
  m_EditorHideFlags: 0
  m_Script: {fileID: 11500000, guid: 6dfe7785597ed9042a491c6fb6bcaafe, type: 3}
  m_Name: Mino9
  m_EditorClassIdentifier: 
  Columns: 2
  Rows: 4
  Board:
  - Column: 0001
  - Column: 0001
  - Column: 0001
  - Column: 0101
